…
``` r
gapminder %>%
  filter(year == year_min) %>%
  filter(continent == "Asia") %>%
  mutate(rank = dense_rank(desc(gdpPercap))) %>%
  filter(gdpPercap > rank) %>%
  arrange(rank)
```

    ## # A tibble: 33 × 7
    ##    country          continent  year lifeExp      pop gdpPercap  rank
    ##    <fct>            <fct>     <int>   <dbl>    <int>     <dbl> <int>
    ##  1 Kuwait           Asia       1952    55.6   160000   108382.     1
    ##  2 Bahrain          Asia       1952    50.9   120447     9867.     2
    ##  3 Saudi Arabia     Asia       1952    39.9  4005677     6460.     3
    ##  4 Lebanon          Asia       1952    55.9  1439529     4835.     4
    ##  5 Iraq             Asia       1952    45.3  5441766     4130.     5
    ##  6 Israel           Asia       1952    65.4  1620914     4087.     6
    ##  7 Japan            Asia       1952    63.0 86459025     3217.     7
    ##  8 Hong Kong, China Asia       1952    61.0  2125900     3054.     8
    ##  9 Iran             Asia       1952    44.9 17272000     3035.     9
    ## 10 Singapore        Asia       1952    60.4  1127000     2315.    10
    ## # … with 23 more rows

``` r
gapminder %>%
  filter(year == year_min) %>%
  filter(continent == "Americas") %>%
  mutate(rank = dense_rank(desc(gdpPercap))) %>%
  filter(gdpPercap > rank) %>%
  arrange(rank)
```

    ## # A tibble: 25 × 7
    ##    country       continent  year lifeExp       pop gdpPercap  rank
    ##    <fct>         <fct>     <int>   <dbl>     <int>     <dbl> <int>
    ##  1 United States Americas   1952    68.4 157553000    13990.     1
    ##  2 Canada        Americas   1952    68.8  14785584    11367.     2
    ##  3 Venezuela     Americas   1952    55.1   5439568     7690.     3
    ##  4 Argentina     Americas   1952    62.5  17876956     5911.     4
    ##  5 Uruguay       Americas   1952    66.1   2252965     5717.     5
    ##  6 Cuba          Americas   1952    59.4   6007797     5587.     6
    ##  7 Chile         Americas   1952    54.7   6377619     3940.     7
    ##  8 Peru          Americas   1952    43.9   8025700     3759.     8
    ##  9 Ecuador       Americas   1952    48.4   3548753     3522.     9
    ## 10 Mexico        Americas   1952    50.8  30144317     3478.    10
    ## # … with 15 more rows
…
