…
    ## `summarise()` has grouped output by 'subject_age'. You can override using the
    ## `.groups` argument.

``` r
arrests_by_age
```

    ## # A tibble: 86 × 4
    ## # Groups:   subject_age [86]
    ##    subject_age num_arrested total_encounters arrest_rate
    ##          <int>        <int>            <int>       <dbl>
    ##  1          10            1               NA     NA     
    ##  2          11            1               NA     NA     
    ##  3          12            3               NA     NA     
    ##  4          13            6               NA     NA     
    ##  5          14           15               NA     NA     
    ##  6          15           44               NA     NA     
    ##  7          16          105               NA     NA     
    ##  8          17          338            17513      0.0193
    ##  9          18          940            48909      0.0192
    ## 10          19         1667            83065      0.0201
    ## # ℹ 76 more rows
…
